<?xml version="1.0" encoding="utf-8"?>
<!-- Generator: Adobe Illustrator 24.3.0, SVG Export Plug-In . SVG Version: 6.00 Build 0)  -->
<svg version="1.1" id="Layer_1" xmlns="http://www.w3.org/2000/svg" xmlns:xlink="http://www.w3.org/1999/xlink" x="0px" y="0px"
	 viewBox="0 0 24 24" style="enable-background:new 0 0 24 24;" xml:space="preserve">
<style type="text/css">
	.st0{fill:none;stroke:#00ADEE;stroke-width:0.7461;stroke-linecap:round;stroke-linejoin:round;stroke-miterlimit:10;}
	.st1{fill:none;stroke:#00ADEE;stroke-width:0.7461;stroke-miterlimit:10;}
</style>
<g>
	<path class="st0" d="M5.57,11.2c0.29-0.25,0.59-0.48,0.86-0.74c1.81-1.62,3.34-3.45,4.37-5.68c0.02-0.06,0.04-0.11,0.08-0.17
		c0.11-0.19,0.13-0.38,0.06-0.61c-0.19-0.72,0.19-1.45,0.88-1.75s1.47-0.04,1.87,0.63c0.69,1.18,1.39,2.38,2.06,3.58
		c0.04,0.08,0.08,0.15,0.15,0.23c0.5-0.36,1.07-0.46,1.64-0.27c0.44,0.15,0.76,0.42,0.99,0.82c0.5,0.9,0.19,1.83-0.86,2.54
		c0.23,0.4,0.44,0.78,0.67,1.18c0.5,0.86,1.01,1.72,1.49,2.61c0.53,0.95,0.02,2.06-1.05,2.25c-0.48,0.08-0.95-0.06-1.28-0.4
		c-0.15-0.15-0.32-0.21-0.5-0.23c-2.36-0.27-4.65,0.11-6.9,0.78c-0.46,0.15-0.9,0.32-1.37,0.46c-0.11,0.04-0.17,0.04-0.25-0.06
		c-0.97-1.68-1.93-3.36-2.92-5.05C5.55,11.26,5.53,11.24,5.57,11.2z"/>
	<path class="st1" d="M4.65,11.52c1.09,1.87,2.15,3.72,3.22,5.57c-0.04,0.04-0.06,0.06-0.11,0.08c-0.82,0.46-1.62,0.95-2.44,1.41
		c-1.91,1.07-4.23,0.04-4.73-2.08c-0.29-1.24,0.19-2.61,1.26-3.32C2.76,12.57,3.7,12.06,4.65,11.52z"/>
	<path class="st1" d="M6.41,19.05c0.69-0.4,1.35-0.78,2.02-1.16c0.04,0.04,0.08,0.08,0.13,0.15c0.67,0.88,1.37,1.77,2.04,2.65
		c0.32,0.4,0.27,0.72-0.11,1.05c-0.21,0.19-0.42,0.4-0.65,0.59c-0.32,0.27-0.72,0.25-0.97-0.06C8.06,21.19,7.24,20.12,6.41,19.05z"
		/>
	<path class="st1" d="M17.41,4.77c-0.5,0-0.82-0.53-0.57-0.99c0.32-0.57,0.63-1.11,0.95-1.66c0.06-0.11,0.13-0.23,0.21-0.34
		c0.21-0.29,0.57-0.38,0.86-0.21s0.44,0.55,0.27,0.86c-0.38,0.69-0.8,1.39-1.2,2.06C17.83,4.68,17.65,4.77,17.41,4.77z"/>
	<path class="st1" d="M21.83,10.42c-0.36,0-0.72,0-1.07,0c-0.42,0-0.74-0.27-0.74-0.67c0-0.38,0.29-0.65,0.72-0.67
		c0.72,0,1.43,0,2.17,0c0.44,0,0.72,0.27,0.72,0.67c0,0.38-0.29,0.65-0.74,0.65h-0.02C22.52,10.42,22.17,10.42,21.83,10.42z"/>
	<path class="st1" d="M19.62,6.22c0-0.25,0.13-0.44,0.34-0.59c0.61-0.36,1.24-0.74,1.87-1.07c0.34-0.19,0.72-0.08,0.9,0.23
		c0.19,0.32,0.11,0.72-0.25,0.93c-0.61,0.38-1.24,0.74-1.87,1.07C20.15,7.06,19.62,6.74,19.62,6.22z"/>
</g>
</svg>
