<?xml version="1.0" encoding="utf-8"?>
<!-- Generator: Adobe Illustrator 24.3.0, SVG Export Plug-In . SVG Version: 6.00 Build 0)  -->
<svg version="1.1" id="Layer_1" xmlns="http://www.w3.org/2000/svg" xmlns:xlink="http://www.w3.org/1999/xlink" x="0px" y="0px"
	 viewBox="0 0 24 24" style="enable-background:new 0 0 24 24;" xml:space="preserve">
<style type="text/css">
	.st0{fill:none;stroke:#00ADEE;stroke-width:0.75;stroke-miterlimit:10;}
	.st1{fill:none;stroke:#00ADEE;stroke-width:0.65;stroke-linecap:round;stroke-linejoin:round;stroke-miterlimit:10;}
	.st2{fill:none;stroke:#00ADEE;stroke-width:0.6;stroke-linecap:round;stroke-linejoin:round;stroke-miterlimit:10;}
	.st3{fill:none;stroke:#00ADEE;stroke-width:0.65;stroke-linecap:round;stroke-miterlimit:10;}
	.st4{fill:#00ADEE;}
</style>
<path class="st0" d="M20.93,21.55H3.24c-0.93,0-1.69-0.76-1.69-1.69V5.44h21.08v14.42C22.62,20.79,21.86,21.55,20.93,21.55z"/>
<path class="st0" d="M20.93,21.55H3.24c-0.93,0-1.69-0.76-1.69-1.69v-0.67h21.08v0.67C22.62,20.79,21.86,21.55,20.93,21.55z"/>
<line class="st0" x1="1.55" y1="19.19" x2="22.62" y2="19.19"/>
<path class="st0" d="M15.52,6.89h7.18c0.35,0,0.63-0.28,0.63-0.63V5.44c0-0.91-0.74-1.66-1.66-1.66H2.33
	c-0.91,0-1.66,0.74-1.66,1.66v0.82c0,0.35,0.28,0.63,0.63,0.63h7.44c0.32,0,0.63,0.17,0.8,0.45l0.47,0.73
	c0.17,0.28,0.47,0.45,0.8,0.45h2.57c0.3,0,0.58-0.15,0.76-0.37l0.63-0.84C14.94,7.02,15.22,6.89,15.52,6.89z"/>
<path class="st0" d="M16.3,6.89v1.93c0,0.65-0.52,1.19-1.19,1.19H8.86c-0.65,0-1.19-0.52-1.19-1.19V7.06V6.89h1.06
	c0.32,0,0.63,0.17,0.8,0.45L10,8.07c0.17,0.28,0.47,0.45,0.8,0.45h2.57c0.3,0,0.58-0.15,0.76-0.37l0.63-0.84
	c0.19-0.24,0.47-0.37,0.76-0.37h0.61h0.17C16.3,6.94,16.3,6.89,16.3,6.89z"/>
<line class="st1" x1="10.29" y1="12.9" x2="13.95" y2="16.51"/>
<line class="st2" x1="13.92" y1="12.86" x2="10.31" y2="16.53"/>
<line class="st3" x1="12.13" y1="12.75" x2="12.13" y2="16.3"/>
<line class="st3" x1="13.86" y1="14.74" x2="10.36" y2="14.74"/>
<path class="st0" d="M5.47,10.59H4.8c-0.28,0-0.5-0.22-0.5-0.5V6.13c0-0.28,0.22-0.5,0.5-0.5h0.67c0.28,0,0.5,0.22,0.5,0.5v3.94
	C5.99,10.35,5.75,10.59,5.47,10.59z"/>
<path class="st0" d="M19.44,10.59h-0.67c-0.28,0-0.5-0.22-0.5-0.5V6.13c0-0.28,0.22-0.5,0.5-0.5h0.67c0.28,0,0.5,0.22,0.5,0.5v3.94
	C19.94,10.35,19.72,10.59,19.44,10.59z"/>
<path class="st4" d="M12.65,16.57c-0.07-0.06-0.21-0.17-0.23-0.23c0,0,0,0.01,0,0.02l-0.6-0.02c-0.02,0.05-0.16,0.17-0.23,0.23
	c-0.19,0.15-0.37,0.31-0.35,0.55c0,0.07,0.03,0.22,0.18,0.31c0.24,0.19,0.51,0.17,0.71,0.07c0.09,0.04,0.19,0.07,0.31,0.07
	c0.13,0,0.27-0.04,0.41-0.14c0.15-0.11,0.19-0.26,0.19-0.33C13.03,16.87,12.84,16.72,12.65,16.57z M12.66,17.2
	c-0.28,0.21-0.54-0.05-0.54-0.05s-0.26,0.26-0.52,0.05c-0.28-0.19,0.51-0.49,0.52-0.82C12.14,16.71,12.94,16.99,12.66,17.2z"/>
<path class="st4" d="M14.09,14.17c-0.06,0.07-0.17,0.21-0.23,0.23c0,0,0.01,0,0.02,0l-0.02,0.6c0.05,0.02,0.17,0.16,0.23,0.23
	c0.15,0.19,0.31,0.37,0.55,0.35c0.07,0,0.22-0.03,0.31-0.18c0.19-0.24,0.17-0.51,0.07-0.71c0.04-0.09,0.07-0.19,0.07-0.31
	c0-0.13-0.04-0.27-0.14-0.41c-0.11-0.15-0.26-0.19-0.33-0.19C14.39,13.79,14.24,13.99,14.09,14.17z M14.72,14.17
	c0.21,0.28-0.05,0.54-0.05,0.54s0.26,0.26,0.05,0.52c-0.19,0.28-0.49-0.51-0.82-0.52C14.23,14.69,14.51,13.88,14.72,14.17z"/>
<path class="st4" d="M9.57,13.85c-0.07,0-0.22,0.03-0.33,0.19c-0.1,0.14-0.14,0.28-0.14,0.41c0,0.11,0.03,0.22,0.07,0.31
	c-0.1,0.2-0.12,0.47,0.07,0.71c0.1,0.14,0.24,0.18,0.31,0.18c0.23,0.02,0.39-0.17,0.55-0.35c0.06-0.07,0.19-0.21,0.23-0.23
	l-0.02-0.6c0.02,0,0.02,0,0.02,0c-0.06-0.02-0.17-0.16-0.23-0.23C9.96,14.02,9.81,13.83,9.57,13.85z M10.3,14.74
	c-0.33,0.02-0.63,0.81-0.82,0.52C9.27,15,9.53,14.74,9.53,14.74s-0.26-0.26-0.05-0.54C9.69,13.92,9.97,14.72,10.3,14.74z"/>
<path class="st4" d="M11.6,12.48c0.07,0.06,0.21,0.17,0.23,0.23c0,0,0-0.01,0-0.02l0.6,0.02c0.02-0.05,0.16-0.17,0.23-0.23
	c0.19-0.15,0.37-0.31,0.35-0.55c0-0.07-0.03-0.22-0.18-0.31c-0.24-0.19-0.51-0.17-0.71-0.07c-0.09-0.04-0.19-0.07-0.31-0.07
	c-0.13,0-0.27,0.04-0.41,0.14c-0.15,0.11-0.19,0.26-0.19,0.33C11.22,12.18,11.41,12.33,11.6,12.48z M11.59,11.85
	c0.28-0.21,0.54,0.05,0.54,0.05s0.26-0.26,0.52-0.05c0.28,0.19-0.51,0.49-0.52,0.82C12.11,12.34,11.31,12.06,11.59,11.85z"/>
</svg>
