<?xml version="1.0" encoding="utf-8"?>
<!-- Generator: Adobe Illustrator 24.3.0, SVG Export Plug-In . SVG Version: 6.00 Build 0)  -->
<svg version="1.1" id="Layer_1" xmlns="http://www.w3.org/2000/svg" xmlns:xlink="http://www.w3.org/1999/xlink" x="0px" y="0px"
	 viewBox="0 0 24 24" style="enable-background:new 0 0 24 24;" xml:space="preserve">
<style type="text/css">
	.st0{fill:none;stroke:#00ADEE;stroke-width:0.7437;stroke-miterlimit:10;}
	.st1{fill:none;stroke:#00ADEE;stroke-width:0.7437;stroke-linecap:round;stroke-linejoin:round;stroke-miterlimit:10;}
</style>
<g>
	<g>
		<path class="st0" d="M19.11,20.27v0.81c0,0.35-0.27,0.62-0.62,0.62H2.31c-0.35,0-0.62-0.29-0.62-0.62V8.94
			c0-0.35,0.29-0.62,0.62-0.62h16.18c0.35,0,0.62,0.29,0.62,0.62v2.87"/>
		<path class="st0" d="M19.78,8.31H1.02c-0.27,0-0.5-0.21-0.5-0.5V5.46c0-0.27,0.21-0.5,0.5-0.5h18.76c0.27,0,0.5,0.21,0.5,0.5v2.35
			C20.28,8.08,20.05,8.31,19.78,8.31z"/>
		<path class="st0" d="M13.37,12.74H7.42c-0.25,0-0.44-0.19-0.44-0.44v-1.39c0-0.25,0.19-0.44,0.44-0.44h5.95
			c0.25,0,0.44,0.19,0.44,0.44v1.39C13.81,12.53,13.62,12.74,13.37,12.74z"/>
	</g>
	<g>
		<path class="st1" d="M18.3,12.37l-3.78,6.72c-0.29,0.54,0.08,1.19,0.71,1.19h7.57c0.6,0,1-0.67,0.69-1.19l-3.78-6.72
			C19.38,11.83,18.61,11.83,18.3,12.37z"/>
		<line class="st1" x1="19.01" y1="14.68" x2="19.01" y2="16.63"/>
		<path class="st1" d="M19.01,17.69"/>
	</g>
	<circle class="st0" cx="19.01" cy="17.69" r="0.25"/>
	<polyline class="st1" points="1.68,14.32 4.64,15.4 5.32,15.65 7.2,14.32 9.63,14.99 	"/>
	<polyline class="st1" points="7.99,19.48 5.55,18.59 5.32,15.65 	"/>
</g>
</svg>
