<?xml version="1.0" encoding="utf-8"?>
<!-- Generator: Adobe Illustrator 24.3.0, SVG Export Plug-In . SVG Version: 6.00 Build 0)  -->
<svg version="1.1" id="Layer_1" xmlns="http://www.w3.org/2000/svg" xmlns:xlink="http://www.w3.org/1999/xlink" x="0px" y="0px"
	 viewBox="0 0 24 24" style="enable-background:new 0 0 24 24;" xml:space="preserve">
<style type="text/css">
	.st0{fill:none;stroke:#00ADEE;stroke-width:0.7239;stroke-linecap:round;stroke-linejoin:round;stroke-miterlimit:10;}
	.st1{fill:none;stroke:#00ADEE;stroke-width:0.7239;stroke-miterlimit:10;}
</style>
<g>
	<path class="st0" d="M23.06,14.9c-0.72-0.65-1.78-0.76-2.63-0.28c-1.2,0.67-2.4,1.39-3.6,2.06c-0.28,0.14-0.58,0.25-0.9,0.42
		c0-0.02,0-0.02,0-0.05c-0.02,0.02-0.02,0.02-0.05,0.05c0,0-1.04,1.06-4.94-0.53c0,0,1.96-0.02,4.94,0.18c0,0,0.07,0.05,0.09,0.12
		c0.21-1.09-0.37-2.06-1.39-2.33c-1.66-0.44-3.33-0.88-4.99-1.34c-0.76-0.21-1.48-0.12-2.17,0.28C6.54,14,5.67,14.48,4.79,14.99
		c-0.23,0.14-0.49,0.28-0.76,0.44c-0.12-0.18-0.21-0.35-0.3-0.51c-0.16-0.28-0.35-0.35-0.62-0.18c-0.81,0.46-1.62,0.92-2.4,1.39
		c-0.32,0.16-0.37,0.39-0.14,0.67c1.55,1.87,3.12,3.74,4.69,5.59c0.16,0.21,0.32,0.23,0.55,0.12c0.44-0.23,0.9-0.49,1.34-0.76
		c0.25-0.16,0.3-0.35,0.16-0.6c-0.12-0.18-0.21-0.35-0.32-0.55c0.25-0.14,0.46-0.28,0.74-0.39c0.44-0.25,0.92-0.32,1.41-0.18
		c1.52,0.39,3.07,0.81,4.62,1.22c0.81,0.23,1.57,0.12,2.29-0.3c0.85-0.49,1.69-0.97,2.54-1.46c1.43-0.83,2.84-1.64,4.27-2.47
		C23.75,16.47,23.82,15.59,23.06,14.9z"/>
	<line class="st1" x1="4" y1="15.43" x2="6.98" y2="20.58"/>
	<g>
		<path class="st1" d="M20.56,13.03H9.36c-0.25,0-0.44-0.21-0.44-0.44V3.97c0-0.25,0.21-0.44,0.44-0.44h11.2
			c0.25,0,0.44,0.21,0.44,0.44v8.62C20.98,12.82,20.8,13.03,20.56,13.03z"/>
		<path class="st1" d="M21.44,3.53H8.46c-0.18,0-0.35-0.14-0.35-0.35V1.57c0-0.18,0.14-0.35,0.35-0.35h12.98
			c0.18,0,0.35,0.14,0.35,0.35v1.62C21.79,3.4,21.63,3.53,21.44,3.53z"/>
		<path class="st1" d="M17.01,6.81H12.9c-0.16,0-0.3-0.14-0.3-0.3V5.57c0-0.16,0.14-0.3,0.3-0.3h4.11c0.16,0,0.3,0.14,0.3,0.3v0.95
			C17.33,6.68,17.19,6.81,17.01,6.81z"/>
	</g>
</g>
</svg>
