<?xml version="1.0" encoding="utf-8"?>
<!-- Generator: Adobe Illustrator 24.3.0, SVG Export Plug-In . SVG Version: 6.00 Build 0)  -->
<svg version="1.1" id="Layer_1" xmlns="http://www.w3.org/2000/svg" xmlns:xlink="http://www.w3.org/1999/xlink" x="0px" y="0px"
	 viewBox="0 0 24 24" style="enable-background:new 0 0 24 24;" xml:space="preserve">
<style type="text/css">
	.st0{fill:none;stroke:#00A5E6;stroke-width:1.2;stroke-linecap:round;stroke-linejoin:round;stroke-miterlimit:10;}
</style>
<g>
	<path class="st0" d="M20.06,4.94"/>
	<path class="st0" d="M11.34,1.59H3.95c-0.74,0-1.34,0.6-1.34,1.34v9.84v6.24v2.8c0,0.74,0.6,1.34,1.34,1.34h14.78
		c0.74,0,1.34-0.6,1.34-1.34V10.85"/>
	<g>
		<line class="st0" x1="21.07" y1="1.53" x2="10.99" y2="10.7"/>
		<path class="st0" d="M15.83,0.82l5.24,0.39c0.17,0.01,0.31,0.16,0.31,0.34l-0.16,5.19"/>
	</g>
</g>
</svg>
