<?xml version="1.0" encoding="utf-8"?>
<!-- Generator: Adobe Illustrator 24.3.0, SVG Export Plug-In . SVG Version: 6.00 Build 0)  -->
<svg version="1.1" id="Layer_1" xmlns="http://www.w3.org/2000/svg" xmlns:xlink="http://www.w3.org/1999/xlink" x="0px" y="0px"
	 viewBox="0 0 24 24" style="enable-background:new 0 0 24 24;" xml:space="preserve">
<style type="text/css">
	.st0{fill:none;stroke:#21A2DB;stroke-width:1.1637;stroke-linecap:round;stroke-linejoin:round;stroke-miterlimit:10;}
</style>
<g>
	<g>
		<path class="st0" d="M1.08,3.28c0,0-0.59-0.87,0.43-1.38l0.4-0.07c0.02,0,0.04,0,0.07,0c6.68,0,13.36,0,20.04,0
			c0.16,0,0.33,0.03,0.49,0.08c0.33,0.11,0.48,0.39,0.6,0.69c0,0.12,0,0.23,0,0.35c-0.15,0.24-0.27,0.51-0.45,0.73
			c-2.69,3.39-5.38,6.77-8.07,10.16c-0.12,0.16-0.18,0.31-0.18,0.51c0.01,1.4-0.01,2.79,0.01,4.19c0.01,0.72-0.25,1.26-0.86,1.66
			c-0.79,0.52-1.56,1.07-2.34,1.62c-0.35,0.25-0.72,0.31-1.1,0.11c-0.38-0.2-0.52-0.54-0.52-0.95c0-2.22,0-4.44,0-6.66
			c0-0.12-0.05-0.26-0.12-0.35c-2.72-3.43-5.45-6.86-8.17-10.3C1.23,3.53,1.15,3.41,1.08,3.28L1.08,3.28z"/>
		<line class="st0" x1="3.33" y1="6.18" x2="14.12" y2="6.18"/>
	</g>
	<line class="st0" x1="15.51" y1="6.18" x2="16.17" y2="6.18"/>
</g>
</svg>
