<?xml version="1.0" encoding="utf-8"?>
<!-- Generator: Adobe Illustrator 24.3.0, SVG Export Plug-In . SVG Version: 6.00 Build 0)  -->
<svg version="1.1" id="Layer_1" xmlns="http://www.w3.org/2000/svg" xmlns:xlink="http://www.w3.org/1999/xlink" x="0px" y="0px"
	 viewBox="0 0 24 24" style="enable-background:new 0 0 24 24;" xml:space="preserve">
<style type="text/css">
	.st0{fill:none;stroke:#00ADEE;stroke-width:0.75;stroke-linecap:round;stroke-miterlimit:10;}
	.st1{fill:none;stroke:#00ADEE;stroke-width:0.75;stroke-miterlimit:10;}
	.st2{fill:none;stroke:#00ADEE;stroke-width:0.75;stroke-linecap:round;stroke-linejoin:round;stroke-miterlimit:10;}
</style>
<g>
	<path class="st0" d="M6.4,18.12H2.92c-0.34,0-0.61-0.27-0.61-0.61v-1.84"/>
	<path class="st0" d="M4.01,6.43h12.41c0.34,0,0.61,0.27,0.61,0.61v11.04c0,0.03-0.02,0.05-0.05,0.05h-6.73"/>
	<path class="st1" d="M18.26,18.12h-1.28l0.05-8.02h3.25c0.21,0,0.4,0.11,0.5,0.29l2.53,4.31c0.05,0.09,0.08,0.2,0.08,0.29v2.55
		c0,0.32-0.26,0.58-0.58,0.58h-0.64"/>
	<circle class="st1" cx="8.27" cy="18.12" r="1.87"/>
	<circle class="st1" cx="20.19" cy="18.12" r="1.87"/>
	<polygon class="st2" points="3.18,12.59 3.18,5.7 1.44,5.7 1.44,12.59 0.62,12.59 2.31,14.8 4.01,12.59 	"/>
</g>
</svg>
