<?xml version="1.0" encoding="utf-8"?>
<!-- Generator: Adobe Illustrator 24.3.0, SVG Export Plug-In . SVG Version: 6.00 Build 0)  -->
<svg version="1.1" id="Layer_1" xmlns="http://www.w3.org/2000/svg" xmlns:xlink="http://www.w3.org/1999/xlink" x="0px" y="0px"
	 viewBox="0 0 24 24" style="enable-background:new 0 0 24 24;" xml:space="preserve">
<style type="text/css">
	.st0{fill:none;stroke:#00A5E6;stroke-width:1.2;stroke-linecap:round;stroke-linejoin:round;stroke-miterlimit:10;}
</style>
<g>
	<path class="st0" d="M5.03,3.26c0,0-2.86,2.39-2.86,7.01"/>
	<path class="st0" d="M18.97,3.26c0,0,2.86,2.39,2.86,7.01"/>
	<path class="st0" d="M13.6,3.72h-3.2V2.23c0-0.88,0.72-1.6,1.6-1.6h0c0.88,0,1.6,0.72,1.6,1.6V3.72z"/>
	<path class="st0" d="M11.99,3.72c-4.78,0-6.64,3.31-6.53,8.35c0.12,5.84-3.03,8.43-3.03,8.43h19.15c0,0-3.16-2.6-3.03-8.43
		C18.64,7.03,16.78,3.72,11.99,3.72L11.99,3.72z"/>
	<path class="st0" d="M14.87,20.5c0,1.59-1.29,2.87-2.87,2.87s-2.87-1.29-2.87-2.87"/>
</g>
</svg>
