<?xml version="1.0" encoding="utf-8"?>
<!-- Generator: Adobe Illustrator 24.3.0, SVG Export Plug-In . SVG Version: 6.00 Build 0)  -->
<svg version="1.1" id="Layer_1" xmlns="http://www.w3.org/2000/svg" xmlns:xlink="http://www.w3.org/1999/xlink" x="0px" y="0px"
	 viewBox="0 0 24 24" style="enable-background:new 0 0 24 24;" xml:space="preserve">
<style type="text/css">
	.st0{fill:none;stroke:#00ADEE;stroke-width:0.7384;stroke-miterlimit:10;}
	.st1{fill:none;stroke:#00ADEE;stroke-width:0.7384;stroke-linecap:round;stroke-miterlimit:10;}
</style>
<g>
	<path class="st0" d="M19.61,20.45c0,0.37-0.29,0.66-0.64,0.66H2.36c-0.37,0-0.64-0.29-0.64-0.64V7.65c0-0.37,0.29-0.64,0.64-0.64
		h16.61c0.37,0,0.64,0.29,0.64,0.64v4.97"/>
	<path class="st0" d="M20.29,7.02H1.02c-0.27,0-0.51-0.23-0.51-0.51V4.1c0-0.27,0.23-0.51,0.51-0.51h19.26
		c0.27,0,0.51,0.23,0.51,0.51v2.4C20.8,6.79,20.55,7.02,20.29,7.02z"/>
	<path class="st0" d="M13.71,11.88H7.59c-0.25,0-0.45-0.21-0.45-0.45v-1.42c0-0.25,0.21-0.45,0.45-0.45h6.1
		c0.25,0,0.45,0.21,0.45,0.45v1.42C14.17,11.68,13.96,11.88,13.71,11.88z"/>
	<g>
		<circle class="st0" cx="19.61" cy="16.48" r="3.86"/>
	</g>
	<path class="st1" d="M17.14,16.09l1.29,1.72c0.18,0.25,0.55,0.29,0.8,0.06l3.14-2.96"/>
</g>
</svg>
