<?xml version="1.0" encoding="utf-8"?>
<!-- Generator: Adobe Illustrator 24.3.0, SVG Export Plug-In . SVG Version: 6.00 Build 0)  -->
<svg version="1.1" id="Layer_1" xmlns="http://www.w3.org/2000/svg" xmlns:xlink="http://www.w3.org/1999/xlink" x="0px" y="0px"
	 viewBox="0 0 24 24" style="enable-background:new 0 0 24 24;" xml:space="preserve">
<style type="text/css">
	.st0{fill:none;stroke:#00ADEE;stroke-width:0.75;stroke-miterlimit:10;}
</style>
<g>
	<path class="st0" d="M21.41,22.83H2.71c-0.41,0-0.72-0.33-0.72-0.72V7.69c0-0.41,0.33-0.72,0.72-0.72h18.7
		c0.41,0,0.72,0.33,0.72,0.72v14.4C22.13,22.5,21.8,22.83,21.41,22.83z"/>
	<path class="st0" d="M22.89,6.98H1.21c-0.31,0-0.57-0.25-0.57-0.57V3.69c0-0.31,0.25-0.57,0.57-0.57h21.67
		c0.31,0,0.57,0.25,0.57,0.57V6.4C23.46,6.73,23.2,6.98,22.89,6.98z"/>
	<path class="st0" d="M15.49,12.45H8.62c-0.29,0-0.51-0.23-0.51-0.51v-1.6c0-0.29,0.23-0.51,0.51-0.51h6.87
		c0.29,0,0.51,0.23,0.51,0.51v1.6C16,12.23,15.77,12.45,15.49,12.45z"/>
</g>
</svg>
