<?xml version="1.0" encoding="utf-8"?>
<!-- Generator: Adobe Illustrator 24.3.0, SVG Export Plug-In . SVG Version: 6.00 Build 0)  -->
<svg version="1.1" id="Layer_1" xmlns="http://www.w3.org/2000/svg" xmlns:xlink="http://www.w3.org/1999/xlink" x="0px" y="0px"
	 viewBox="0 0 24 24" style="enable-background:new 0 0 24 24;" xml:space="preserve">
<style type="text/css">
	.st0{fill:none;stroke:#00A5E6;stroke-linecap:round;stroke-linejoin:round;stroke-miterlimit:10;}
</style>
<g>
	<path class="st0" d="M0.79,14.85c0.04-0.08,0.07-0.17,0.12-0.25c0.2-0.38,0.5-0.6,0.93-0.63c0.07,0,0.13-0.01,0.2-0.01
		c0.53,0,0.72-0.16,0.8-0.68c0.02-0.11-0.05-0.25-0.12-0.35c-0.09-0.14-0.23-0.24-0.34-0.37c-0.32-0.4-0.35-0.99-0.01-1.37
		c0.39-0.44,0.8-0.85,1.23-1.24c0.41-0.37,1-0.34,1.42,0.01c0.12,0.1,0.23,0.22,0.35,0.33c0.12,0.12,0.26,0.15,0.42,0.09
		c0.11-0.04,0.22-0.09,0.32-0.13c0.19-0.08,0.28-0.22,0.28-0.43c0-0.13,0-0.26,0-0.39c0.04-0.6,0.47-1.04,1.07-1.06
		c0.53-0.02,1.07-0.02,1.6,0c0.59,0.02,1.02,0.47,1.05,1.05c0,0.05,0.01,0.1,0.01,0.15c0.01,0.57,0.05,0.63,0.59,0.81
		c0.17,0.06,0.31,0.03,0.44-0.09c0.13-0.12,0.25-0.25,0.38-0.36c0.42-0.33,0.99-0.33,1.39,0.02c0.42,0.38,0.82,0.79,1.21,1.21
		c0.36,0.4,0.35,0.99,0.01,1.41c-0.1,0.12-0.2,0.23-0.32,0.33c-0.16,0.15-0.19,0.32-0.1,0.52c0.04,0.08,0.07,0.16,0.1,0.24
		c0.08,0.22,0.23,0.3,0.45,0.31c0.22,0.01,0.44,0,0.65,0.05c0.46,0.12,0.77,0.51,0.79,0.99c0.02,0.54,0.02,1.08,0,1.62
		c-0.02,0.58-0.46,1.02-1.05,1.06c-0.06,0-0.12,0-0.17,0c-0.54,0-0.71,0.13-0.8,0.67c-0.02,0.11,0.05,0.26,0.12,0.37
		c0.09,0.14,0.23,0.24,0.34,0.37c0.32,0.4,0.35,0.97,0.01,1.35c-0.4,0.45-0.83,0.88-1.28,1.28c-0.36,0.32-0.95,0.29-1.34-0.01
		c-0.12-0.1-0.24-0.21-0.35-0.33c-0.15-0.15-0.32-0.2-0.51-0.11c-0.09,0.04-0.17,0.08-0.26,0.11c-0.21,0.08-0.29,0.23-0.29,0.44
		c0,0.2,0.01,0.4-0.03,0.59c-0.11,0.49-0.52,0.84-1.03,0.86c-0.53,0.02-1.07,0.02-1.6,0c-0.59-0.02-1.03-0.48-1.07-1.07
		c-0.01-0.1-0.01-0.2,0-0.31c0.03-0.28-0.1-0.44-0.36-0.55c-0.47-0.19-0.48-0.19-0.85,0.18c-0.57,0.56-1.21,0.56-1.77,0.01
		c-0.3-0.3-0.6-0.6-0.9-0.9c-0.53-0.54-0.53-1.19,0-1.72c0.01-0.01,0.02-0.02,0.03-0.03c0.36-0.37,0.39-0.63,0.07-1.05
		c-0.06-0.07-0.16-0.11-0.25-0.15c-0.05-0.02-0.12-0.01-0.17-0.01c-0.7,0.05-1.18-0.23-1.4-0.92C0.79,16.14,0.79,15.49,0.79,14.85z"
		/>
	<path class="st0" d="M6.35,7.37C5.98,7,5.61,6.64,5.25,6.27c-0.51-0.52-0.51-1.17,0-1.69C5.74,4.09,6.23,3.6,6.72,3.11
		c0.53-0.52,1.17-0.52,1.7,0C8.66,3.34,8.9,3.58,9.14,3.82C9.3,3.99,9.47,4.03,9.69,3.93c0.29-0.13,0.59-0.25,0.89-0.37
		c0.21-0.08,0.31-0.22,0.3-0.45c-0.01-0.34-0.01-0.67,0-1.01c0.01-0.62,0.27-0.97,0.85-1.18c0.02-0.01,0.03-0.02,0.05-0.04
		c0.89,0,1.78,0,2.67,0c0.09,0.04,0.18,0.07,0.26,0.11c0.44,0.22,0.65,0.59,0.65,1.08c0,0.35,0.01,0.7,0,1.05
		c0,0.22,0.1,0.35,0.3,0.43c0.3,0.12,0.6,0.24,0.89,0.37c0.22,0.1,0.39,0.07,0.55-0.1c0.23-0.24,0.47-0.48,0.71-0.71
		c0.53-0.52,1.17-0.53,1.7,0c0.49,0.49,0.98,0.98,1.47,1.47c0.52,0.53,0.52,1.17,0,1.7c-0.24,0.24-0.48,0.49-0.73,0.73
		c-0.15,0.15-0.18,0.31-0.1,0.52c0.13,0.3,0.26,0.6,0.38,0.91c0.08,0.21,0.22,0.31,0.45,0.3c0.33-0.01,0.66,0,0.98,0
		c0.77,0,1.23,0.47,1.23,1.23c0,0.68,0,1.36,0,2.04c0,0.75-0.45,1.21-1.21,1.22c-0.34,0.01-0.67,0.01-1.01,0
		c-0.24,0-0.38,0.1-0.46,0.32c-0.11,0.3-0.24,0.59-0.37,0.89c-0.09,0.2-0.06,0.36,0.1,0.52c0.24,0.24,0.49,0.48,0.73,0.73
		c0.52,0.53,0.52,1.17,0,1.7c-0.49,0.49-0.98,0.98-1.47,1.47c-0.52,0.51-1.16,0.52-1.69,0.01c-0.39-0.38-0.78-0.77-1.16-1.16"/>
	<path class="st0" d="M9.72,7.52c0.38-0.3,0.75-0.61,1.16-0.84c0.69-0.39,1.45-0.56,2.24-0.55c2.34,0,4.36,1.66,4.76,3.96
		c0.28,1.62-0.15,3.06-1.29,4.27"/>
	<path class="st0" d="M11.62,15.84c-0.03,2.11-1.54,3.31-3.35,3.34c-1.9,0.03-3.38-1.51-3.36-3.42c0.01-1.8,1.53-3.29,3.35-3.29
		C10.13,12.48,11.63,13.98,11.62,15.84z"/>
</g>
</svg>
