<?xml version="1.0" encoding="utf-8"?>
<!-- Generator: Adobe Illustrator 24.3.0, SVG Export Plug-In . SVG Version: 6.00 Build 0)  -->
<svg version="1.1" id="Layer_1" xmlns="http://www.w3.org/2000/svg" xmlns:xlink="http://www.w3.org/1999/xlink" x="0px" y="0px"
	 viewBox="0 0 24 24" style="enable-background:new 0 0 24 24;" xml:space="preserve">
<style type="text/css">
	.st0{fill:none;stroke:#21A2DB;stroke-width:1.0137;stroke-linecap:round;stroke-linejoin:round;stroke-miterlimit:10;}
</style>
<g>
	<circle class="st0" cx="3.8" cy="20.24" r="3"/>
	<circle class="st0" cx="3.8" cy="20.24" r="1.25"/>
	<circle class="st0" cx="15.81" cy="20.24" r="1.84"/>
	<circle class="st0" cx="12.82" cy="13.81" r="1.84"/>
	<line class="st0" x1="13.97" y1="20.24" x2="6.8" y2="20.24"/>
	<path class="st0" d="M14.65,13.87h5.62c1.72,0,3.11,1.39,3.11,3.11v0.16c0,1.72-1.39,3.11-3.11,3.11h-2.63"/>
	<path class="st0" d="M20.01,9.27H6.82c-1.27,0-2.3,1.03-2.3,2.3v0c0,1.27,1.03,2.3,2.3,2.3h2.53h1.63"/>
	<g>
		<path class="st0" d="M20.73,0.79c1.56,0.34,2.59,1.87,2.42,3.46c-0.1,0.93-0.49,1.75-0.98,2.52c-0.55,0.87-1.21,1.64-1.96,2.35
			c-0.2,0.2-0.31,0.2-0.51,0c-1.03-1.01-1.95-2.11-2.54-3.44c-0.3-0.68-0.47-1.39-0.39-2.15c0.15-1.36,1.21-2.52,2.56-2.77
			C19.33,0.76,20,0.63,20.73,0.79z"/>
		<path class="st0" d="M19.95,5.52c0.89,0,1.61-0.73,1.61-1.62c0-0.89-0.72-1.61-1.61-1.61c-0.9,0-1.62,0.72-1.62,1.61
			C18.34,4.8,19.06,5.52,19.95,5.52z"/>
	</g>
</g>
</svg>
