<?xml version="1.0" encoding="utf-8"?>
<!-- Generator: Adobe Illustrator 26.3.0, SVG Export Plug-In . SVG Version: 6.00 Build 0)  -->
<svg version="1.1" id="Layer_1" xmlns="http://www.w3.org/2000/svg" xmlns:xlink="http://www.w3.org/1999/xlink" x="0px" y="0px"
	 viewBox="0 0 128.9 107" style="enable-background:new 0 0 128.9 107;" xml:space="preserve">
<style type="text/css">
	.st0{fill:none;stroke:#231F20;stroke-width:2;stroke-miterlimit:10;}
	.st1{fill:#FFFFFF;stroke:#231F20;stroke-width:2;stroke-miterlimit:10;}
</style>
<g>
	<path class="st0" d="M111.7,100.8H16.6c-5,0-9.1-4.1-9.1-9.1V14.2h113.3v77.5C120.8,96.7,116.7,100.8,111.7,100.8z"/>
	<line class="st0" x1="7.5" y1="88.1" x2="120.8" y2="88.1"/>
	<path class="st1" d="M82.6,22h38.6c1.9,0,3.4-1.5,3.4-3.4v-4.4c0-4.9-4-8.9-8.9-8.9h-104c-4.9,0-8.9,4-8.9,8.9v4.4
		c0,1.9,1.5,3.4,3.4,3.4h40c1.7,0,3.4,0.9,4.3,2.4l2.5,3.9c0.9,1.5,2.5,2.4,4.3,2.4h13.8c1.6,0,3.1-0.8,4.1-2l3.4-4.5
		C79.5,22.7,81,22,82.6,22z"/>
	<path class="st0" d="M86.8,22v10.4c0,3.5-2.8,6.4-6.4,6.4H46.8c-3.5,0-6.4-2.8-6.4-6.4v-9.5V22h5.7c1.7,0,3.4,0.9,4.3,2.4l2.5,3.9
		c0.9,1.5,2.5,2.4,4.3,2.4H71c1.6,0,3.1-0.8,4.1-2l3.4-4.5c1-1.3,2.5-2,4.1-2h3.3h0.9V22z"/>
	<line class="st0" x1="54.5" y1="54.3" x2="74.2" y2="73.7"/>
	<line class="st0" x1="74" y1="54.1" x2="54.6" y2="73.8"/>
	<line class="st0" x1="64.4" y1="51.9" x2="64.4" y2="78.4"/>
	<line class="st0" x1="78.7" y1="64.2" x2="50.2" y2="64.2"/>
	<path class="st1" d="M64.5,48.3c0,0-1.7-1.7-3.5-0.3c-1.9,1.3,3.4,3.3,3.5,5.5c0.1-2.2,5.5-4.1,3.6-5.5S64.5,48.3,64.5,48.3z"/>
	<path class="st1" d="M64.5,79.6c0,0-1.7,1.7-3.5,0.3c-1.9-1.3,3.4-3.3,3.5-5.5c0.1,2.2,5.5,4.1,3.6,5.5S64.5,79.6,64.5,79.6z"/>
	<path class="st1" d="M48.8,63.9c0,0-1.7,1.7-0.3,3.5c1.3,1.9,3.3-3.4,5.5-3.5c-2.2-0.1-4.1-5.5-5.5-3.6
		C47.2,62.3,48.8,63.9,48.8,63.9z"/>
	<path class="st1" d="M80.1,63.9c0,0,1.7,1.7,0.3,3.5c-1.3,1.9-3.3-3.4-5.5-3.5c2.2-0.1,4.1-5.5,5.5-3.6
		C81.8,62.3,80.1,63.9,80.1,63.9z"/>
	<path class="st1" d="M28.6,41.9H25c-1.5,0-2.7-1.2-2.7-2.7V17.9c0-1.5,1.2-2.7,2.7-2.7h3.6c1.5,0,2.7,1.2,2.7,2.7v21.2
		C31.4,40.6,30.1,41.9,28.6,41.9z"/>
	<path class="st1" d="M103.7,41.9h-3.6c-1.5,0-2.7-1.2-2.7-2.7V17.9c0-1.5,1.2-2.7,2.7-2.7h3.6c1.5,0,2.7,1.2,2.7,2.7v21.2
		C106.4,40.6,105.2,41.9,103.7,41.9z"/>
</g>
</svg>
