<?xml version="1.0" encoding="utf-8"?>
<!-- Generator: Adobe Illustrator 26.3.0, SVG Export Plug-In . SVG Version: 6.00 Build 0)  -->
<svg version="1.1" id="Layer_1" xmlns="http://www.w3.org/2000/svg" xmlns:xlink="http://www.w3.org/1999/xlink" x="0px" y="0px"
	 viewBox="0 0 95.7 82.2" style="enable-background:new 0 0 95.7 82.2;" xml:space="preserve">
<style type="text/css">
	.st0{fill:#FFFFFF;stroke:#231F20;stroke-width:2;stroke-miterlimit:10;}
</style>
<g>
	<path class="st0" d="M42.3,79h-36c-0.8,0-1.4-0.6-1.4-1.4V49.8c0-0.8,0.6-1.4,1.4-1.4h36c0.8,0,1.4,0.6,1.4,1.4v27.7
		C43.6,78.3,43,79,42.3,79z"/>
	<path class="st0" d="M45.1,49.1H3.4c-0.6,0-1.1-0.5-1.1-1.1v-5.2c0-0.6,0.5-1.1,1.1-1.1h41.7c0.6,0,1.1,0.5,1.1,1.1V48
		C46.2,48.7,45.7,49.1,45.1,49.1z"/>
	<path class="st0" d="M30.9,59H17.6c-0.6,0-1-0.4-1-1v-3.1c0-0.6,0.4-1,1-1h13.2c0.6,0,1,0.4,1,1V58C31.8,58.6,31.4,59,30.9,59z"/>
</g>
<g>
	<path class="st0" d="M90.1,79h-36c-0.8,0-1.4-0.6-1.4-1.4V49.8c0-0.8,0.6-1.4,1.4-1.4h36c0.8,0,1.4,0.6,1.4,1.4v27.7
		C91.5,78.3,90.9,79,90.1,79z"/>
	<path class="st0" d="M93,49.1H51.3c-0.6,0-1.1-0.5-1.1-1.1v-5.2c0-0.6,0.5-1.1,1.1-1.1H93c0.6,0,1.1,0.5,1.1,1.1V48
		C94.1,48.7,93.6,49.1,93,49.1z"/>
	<path class="st0" d="M78.7,59H65.5c-0.6,0-1-0.4-1-1v-3.1c0-0.6,0.4-1,1-1h13.2c0.6,0,1,0.4,1,1V58C79.7,58.6,79.3,59,78.7,59z"/>
</g>
<g>
	<path class="st0" d="M64.9,40.6H29c-0.8,0-1.4-0.6-1.4-1.4V11.4c0-0.8,0.6-1.4,1.4-1.4h36c0.8,0,1.4,0.6,1.4,1.4v27.7
		C66.3,39.9,65.7,40.6,64.9,40.6z"/>
	<path class="st0" d="M67.8,10.7H26.1c-0.6,0-1.1-0.5-1.1-1.1V4.4c0-0.6,0.5-1.1,1.1-1.1h41.7c0.6,0,1.1,0.5,1.1,1.1v5.2
		C68.9,10.3,68.4,10.7,67.8,10.7z"/>
	<path class="st0" d="M53.5,20.6H40.3c-0.6,0-1-0.4-1-1v-3.1c0-0.6,0.4-1,1-1h13.2c0.6,0,1,0.4,1,1v3.1
		C54.5,20.2,54.1,20.6,53.5,20.6z"/>
</g>
</svg>
