<?xml version="1.0" encoding="utf-8"?>
<!-- Generator: Adobe Illustrator 26.3.0, SVG Export Plug-In . SVG Version: 6.00 Build 0)  -->
<svg version="1.1" id="Layer_1" xmlns="http://www.w3.org/2000/svg" xmlns:xlink="http://www.w3.org/1999/xlink" x="0px" y="0px"
	 viewBox="0 0 114.6 88.1" style="enable-background:new 0 0 114.6 88.1;" xml:space="preserve">
<style type="text/css">
	.st0{fill:#FFFFFF;stroke:#231F20;stroke-width:2;stroke-miterlimit:10;}
	.st1{fill:#FFFFFF;}
	.st2{fill:none;stroke:#231F20;stroke-width:2;stroke-linecap:round;stroke-linejoin:round;}
	.st3{fill:#231F20;}
	.st4{fill:none;stroke:#231F20;stroke-width:0.936;stroke-miterlimit:10;}
	.st5{fill:none;stroke:#231F20;stroke-width:0.936;stroke-linecap:round;stroke-miterlimit:10;}
</style>
<g>
	<g>
		<path class="st0" d="M91.9,85.7H11.5c-1.8,0-3.1-1.4-3.1-3.1v-62c0-1.8,1.4-3.1,3.1-3.1h80.3c1.8,0,3.1,1.4,3.1,3.1v61.8
			C94.9,84.2,93.5,85.7,91.9,85.7z"/>
		<path class="st0" d="M98.2,19H5.1c-1.3,0-2.5-1.1-2.5-2.5V4.9c0-1.3,1.1-2.5,2.5-2.5h93.1c1.3,0,2.5,1.1,2.5,2.5v11.6
			C100.7,18,99.5,19,98.2,19z"/>
		<path class="st0" d="M66.4,41H36.9c-1.2,0-2.2-1-2.2-2.2v-6.9c0-1.2,1-2.2,2.2-2.2h29.5c1.2,0,2.2,1,2.2,2.2v6.9
			C68.6,40.2,67.6,41,66.4,41z"/>
	</g>
</g>
<g>
	<g>
		<path class="st1" d="M112,63.3c-2.5,7.7-9.7,13.3-18.2,13.3c-10.5,0-19.1-8.6-19.1-19.1c0-10.5,8.6-19.1,19.1-19.1
			c7.9,0,14.7,4.8,17.6,11.7"/>
		<g>
			<path class="st2" d="M112,63.3c-2.5,7.7-9.7,13.3-18.2,13.3c-10.5,0-19.1-8.6-19.1-19.1c0-10.5,8.6-19.1,19.1-19.1
				c6.4,0,12.1,3.2,15.6,8.1"/>
			<g>
				<polygon class="st3" points="106.4,47.3 111.4,50.1 111.4,44.3 				"/>
			</g>
		</g>
	</g>
</g>
<g>
	<g>
		<circle class="st4" cx="93.8" cy="57.5" r="15.5"/>
		<g>
			<line class="st5" x1="93.8" y1="42" x2="93.8" y2="44.8"/>
			<line class="st5" x1="93.8" y1="70.2" x2="93.8" y2="73"/>
		</g>
		<g>
			<line class="st5" x1="78.1" y1="57.5" x2="80.9" y2="57.5"/>
			<line class="st5" x1="106.5" y1="57.5" x2="109.3" y2="57.5"/>
		</g>
		<g>
			<line class="st5" x1="82.7" y1="68.5" x2="84.7" y2="66.5"/>
			<line class="st5" x1="102.8" y1="48.4" x2="104.7" y2="46.5"/>
		</g>
		<g>
			<line class="st5" x1="104.7" y1="68.5" x2="102.8" y2="66.5"/>
			<line class="st5" x1="84.7" y1="48.4" x2="82.7" y2="46.5"/>
		</g>
	</g>
	<circle class="st5" cx="93.8" cy="57.5" r="1.4"/>
	<line class="st5" x1="93.8" y1="56" x2="93.8" y2="48.4"/>
	<line class="st5" x1="95.2" y1="57.5" x2="100.1" y2="57.5"/>
</g>
</svg>
