<?xml version="1.0" encoding="utf-8"?>
<!-- Generator: Adobe Illustrator 26.3.0, SVG Export Plug-In . SVG Version: 6.00 Build 0)  -->
<svg version="1.1" id="Layer_1" xmlns="http://www.w3.org/2000/svg" xmlns:xlink="http://www.w3.org/1999/xlink" x="0px" y="0px"
	 viewBox="0 0 116 90" style="enable-background:new 0 0 116 90;" xml:space="preserve">
<style type="text/css">
	.st0{fill:#FFFFFF;stroke:#231F20;stroke-width:2;stroke-miterlimit:10;}
	.st1{fill:#1D1D1B;}
</style>
<g>
	<path class="st0" d="M92.1,86.1H11.8c-1.8,0-3.1-1.4-3.1-3.1V21.1c0-1.8,1.4-3.1,3.1-3.1h80.3c1.8,0,3.1,1.4,3.1,3.1v61.8
		C95.2,84.7,93.8,86.1,92.1,86.1z"/>
	<path class="st0" d="M98.4,19.5H5.3c-1.3,0-2.5-1.1-2.5-2.5V5.4c0-1.3,1.1-2.5,2.5-2.5h93.1c1.3,0,2.5,1.1,2.5,2.5V17
		C100.9,18.5,99.8,19.5,98.4,19.5z"/>
	<path class="st0" d="M66.6,41.5H37.1c-1.2,0-2.2-1-2.2-2.2v-6.9c0-1.2,1-2.2,2.2-2.2h29.5c1.2,0,2.2,1,2.2,2.2v6.9
		C68.8,40.6,67.9,41.5,66.6,41.5z"/>
</g>
<g>
	<path class="st1" d="M109.8,71.3c2.7-3.1,4.4-7.2,4.4-11.7c0-2.4-0.5-4.7-1.4-6.9l-14.4,7L109.8,71.3z"/>
	<path class="st0" d="M95.1,42c-9.2,0.7-16.4,8.3-16.4,17.7c0,9.8,7.9,17.7,17.7,17.7c4.5,0,8.5-1.6,11.7-4.4L95.3,60L95.1,42z"/>
</g>
</svg>
