<?xml version="1.0" encoding="utf-8"?>
<!-- Generator: Adobe Illustrator 26.3.0, SVG Export Plug-In . SVG Version: 6.00 Build 0)  -->
<svg version="1.1" id="Layer_1" xmlns="http://www.w3.org/2000/svg" xmlns:xlink="http://www.w3.org/1999/xlink" x="0px" y="0px"
	 viewBox="0 0 120.6 106.1" style="enable-background:new 0 0 120.6 106.1;" xml:space="preserve">
<style type="text/css">
	.st0{fill:none;stroke:#231F20;stroke-width:2;stroke-linecap:round;stroke-miterlimit:10;}
	.st1{fill:none;stroke:#231F20;stroke-width:2.2521;stroke-linecap:round;stroke-miterlimit:10;}
	.st2{fill:#231F20;}
	.st3{fill:#FFFFFF;stroke:#231F20;stroke-width:2;stroke-miterlimit:10;}
	.st4{fill:#FFFFFF;stroke:#231F20;stroke-miterlimit:10;}
</style>
<g>
	<path class="st0" d="M99.3,67.9V98c0,2.1-1.6,3.7-3.7,3.7h-87c-2.1,0-3.7-1.6-3.7-3.7V8.1c0-2.1,1.6-3.7,3.7-3.7h87
		c2.1,0,3.7,1.6,3.7,3.7v42.4V67.9z"/>
	<line class="st0" x1="5.6" y1="18.8" x2="99.3" y2="18.8"/>
	<g>
		<path class="st0" d="M27.6,45.6h-9.5c-2.1,0-3.3-1.6-3.3-3.3v-9.5c0-2.1,1.6-3.3,3.3-3.3h9.5c2.1,0,3.3,1.6,3.3,3.3v9.5
			C30.9,44,29.7,45.6,27.6,45.6z"/>
		<path class="st0" d="M15.7,32.4l6.2,5.8c0.4,0.4,1.6,0.4,2.1,0l12-12.8"/>
	</g>
	<g>
		<path class="st0" d="M27.6,68.7h-9.5c-2.1,0-3.3-1.6-3.3-3.3v-9.5c0-2.1,1.6-3.3,3.3-3.3h9.5c2.1,0,3.3,1.6,3.3,3.3v9.5
			C30.9,67.1,29.7,68.7,27.6,68.7z"/>
		<path class="st0" d="M15.7,55.5l6.2,5.8c0.4,0.4,1.6,0.4,2.1,0l12-12.8"/>
	</g>
	<g>
		<path class="st0" d="M27.6,91.8h-9.5c-2.1,0-3.3-1.6-3.3-3.3V79c0-2.1,1.6-3.3,3.3-3.3h9.5c2.1,0,3.3,1.6,3.3,3.3v9.5
			C30.9,90.1,29.7,91.8,27.6,91.8z"/>
		<path class="st0" d="M15.7,78.6l6.2,5.8c0.4,0.4,1.6,0.4,2.1,0l12-12.8"/>
	</g>
	<path class="st0" d="M53.6,32h31.7c1.6,0,3.3,1.2,3.3,3.3v3.3c0,1.6-1.2,3.3-3.3,3.3H44.5c-1.6,0-3.3-1.2-3.3-3.3v-3.3
		c0-1.6,1.2-3.3,3.3-3.3h1.6"/>
	<path class="st0" d="M85.3,65H44.9c-2.1,0-3.3-1.6-3.3-3.3v-2.9c0-2.1,1.6-3.3,3.3-3.3h40.4c2.1,0,3.3,1.6,3.3,3.3v2.9
		C88.6,63.8,87,65,85.3,65z"/>
	<path class="st1" d="M85.3,88.5H44.9c-2.1,0-3.3-1.6-3.3-3.3v-2.9c0-2.1,1.6-3.3,3.3-3.3h40.4c2.1,0,3.3,1.6,3.3,3.3v2.9
		C88.6,86.8,87,88.5,85.3,88.5z"/>
	<line class="st1" x1="55.6" y1="11" x2="91.5" y2="11"/>
	<circle class="st2" cx="20.2" cy="11" r="2.1"/>
	<circle class="st2" cx="12.8" cy="11" r="2.1"/>
	<g>
		<circle class="st3" cx="99.3" cy="77.9" r="18.8"/>
	</g>
	<g>
		<path class="st4" d="M107.9,86.8H90.8c-0.4,0-0.7-0.3-0.7-0.7V72.9c0-0.4,0.3-0.7,0.7-0.7h17.1c0.4,0,0.7,0.3,0.7,0.7v13.2
			C108.5,86.5,108.2,86.8,107.9,86.8z"/>
		<path class="st4" d="M109.2,72.6H89.4c-0.3,0-0.5-0.2-0.5-0.5v-2.5c0-0.3,0.2-0.5,0.5-0.5h19.8c0.3,0,0.5,0.2,0.5,0.5V72
			C109.8,72.3,109.5,72.6,109.2,72.6z"/>
		<path class="st4" d="M102.5,77.3h-6.3c-0.3,0-0.5-0.2-0.5-0.5v-1.5c0-0.3,0.2-0.5,0.5-0.5h6.3c0.3,0,0.5,0.2,0.5,0.5v1.5
			C102.9,77.1,102.7,77.3,102.5,77.3z"/>
	</g>
</g>
</svg>
