<?xml version="1.0" encoding="utf-8"?>
<!-- Generator: Adobe Illustrator 26.3.0, SVG Export Plug-In . SVG Version: 6.00 Build 0)  -->
<svg version="1.1" id="Layer_1" xmlns="http://www.w3.org/2000/svg" xmlns:xlink="http://www.w3.org/1999/xlink" x="0px" y="0px"
	 viewBox="0 0 118.3 92.5" style="enable-background:new 0 0 118.3 92.5;" xml:space="preserve">
<style type="text/css">
	.st0{fill:#FFFFFF;stroke:#231F20;stroke-width:2;stroke-miterlimit:10;}
	.st1{fill:none;stroke:#000000;stroke-width:2;stroke-linecap:round;stroke-miterlimit:10;}
</style>
<g>
	<path class="st0" d="M93.1,88H12.2c-1.8,0-3.1-1.4-3.1-3.1V22.5c0-1.8,1.4-3.1,3.1-3.1h80.9c1.8,0,3.1,1.4,3.1,3.1v62.3
		C96.3,86.5,94.8,88,93.1,88z"/>
	<path class="st0" d="M99.5,20.9H5.8c-1.3,0-2.5-1.1-2.5-2.5V6.7c0-1.3,1.1-2.5,2.5-2.5h93.8c1.3,0,2.5,1.1,2.5,2.5v11.7
		C102,19.8,100.9,20.9,99.5,20.9z"/>
	<path class="st0" d="M67.5,43.1H37.8c-1.2,0-2.2-1-2.2-2.2V34c0-1.2,1-2.2,2.2-2.2h29.7c1.2,0,2.2,1,2.2,2.2v6.9
		C69.7,42.1,68.8,43.1,67.5,43.1z"/>
	<g>
		<circle class="st0" cx="96.3" cy="65.5" r="18.8"/>
	</g>
	<g>
		<line class="st1" x1="86.4" y1="55.6" x2="106.1" y2="75.4"/>
		<line class="st1" x1="106.1" y1="55.6" x2="86.4" y2="75.4"/>
	</g>
</g>
</svg>
